=======
@section('main_content')
    <?php
        //  $auth = Auth::guard();
        //  dd($auth);
        $month_days  = (int)date('t');
        $totaldays=1;
        $today = (int)date('d');
        $login = 'no_login';
        $post_url = $front_url.'activity/2019-christmas/checkin';

        if (!frontendUser('id')) {
            echo $no_login;
        }else{
            $login = '';
        }
        
        var_dump ($checkin_date);
        var_dump ($special_day);
        var_dump ($total_discount);
        // sort($day);
        // $arrChecked = json_decode(json_encode($checkin_date), true);
        // var_dump ($arrChecked);
                
        $arrNumber = 1;
        
        ?>
    {!! Form::open(array('url'=>$post_url, 'method'=>'post')) !!}
        <table background="{{ asset('frontend/img/epaper_bg.jpg') }}">
            @for($i=0; $i < 4; $i++)
                <tr>
                    @for($j=0; $j < 6; $j++)
                        @if($totaldays <= $today)
                            @if(in_array($totaldays, $checkin_date))
                            <td><button style="color:green" disabled="disabled" type="submit" class="{{ $login }}">{{ $totaldays }}</button></td>
                            @elseif($totaldays == $today)
                            <td><button style="color:orange" type="submit" class="{{ $login }}">{{ $totaldays }}</button></td>
                            @else
                            <td><button style="color:blue" disabled="disabled" type="submit" class="{{ $login }}">{{ $totaldays }}</button></td>
                            @endif
                        @else
                            <td><button style="color:red" type="submit" disabled="disabled" class="{{ $login }}">{{ $totaldays }}</button></td>
                        @endif
                    <?php $totaldays++ ?>
                    @endfor
                </tr>
            @endfor
        </table>
    </form>
    <button class="ajaxtest">ajax</button>
    <?php 
        if(!empty($day)){
        $arrFirst = $day[0];
                foreach($day as $data){
                    if($data-$arrFirst==0){
                        $arrFirst++;
                        $case[$arrNumber][] = $data;
                    }else{
                        $arrNumber++;
                        while($arrFirst <= $data){
                            $arrFirst++;
                        }
                        $case[$arrNumber][] = $data;
                    }
                }
        
            }
    ?>                           
    <script>

    $(function() {
    	$('.no_login').click(function(event) {
    		event.preventDefault();
    		showMsg('{{ trans('frontend.login_first') }}')
            // window.location.href = "{{ $front_url.'auth/login' }}";
            
        });
        
        $('.ajaxtest').click(function() {
            $.ajax({
                type:"post",
                // async: false, 
                url: "{{ $front_url.'activity/2019-christmas/checkin' }}",
                data:{},
                // dataType: "json" ,
                headers: {
                        'X-CSRF-TOKEN': '{{ csrf_token() }}'
                    },
                error:function(){
    
                alert("失敗");
                
                },
                success:function(){
                
                alert("成功");
                
                }   
            })
    	});
    });
</script>
>>>>>>> 910e3c7fd2ce2a9f5cf9ccbe6f9fc8ae409172b6